C:\Users\etrujill\Downloads\gs-rest-service-master\gs-rest-service-master\complete\src\main\java\hello\Application.java
C:\Users\etrujill\Downloads\gs-rest-service-master\gs-rest-service-master\complete\src\main\java\hello\Greeting.java
C:\Users\etrujill\Downloads\gs-rest-service-master\gs-rest-service-master\complete\src\main\java\hello\GreetingController.java
